highway_traffic/trafficv2.vcd
$date
	Fri Dec 12 20:08:38 2025
$end
$version
	Icarus Verilog
$end
$timescale
	1ps
$end
$scope module tb_trafficv2 $end
$var wire 1 ! is_true1 $end
$var wire 1 " is_true $end
$var wire 2 # hwy [1:0] $end
$var wire 2 $ country [1:0] $end
$var reg 1 % B $end
$var reg 1 & X $end
$var reg 8 ' char [7:0] $end
$var reg 1 ( clear $end
$var reg 1 ) clk $end
$var reg 5 * hours [4:0] $end
$var reg 6 + minutes [5:0] $end
$scope module DUT $end
$var wire 1 % B $end
$var wire 1 & X $end
$var wire 8 , char [7:0] $end
$var wire 1 ( clear $end
$var wire 1 ) clock $end
$var wire 5 - hours [4:0] $end
$var wire 6 . minutes [5:0] $end
$var wire 1 ! is_true1 $end
$var reg 2 / country [1:0] $end
$var reg 2 0 hwy [1:0] $end
$var reg 1 " is_true $end
$var reg 3 1 next_state [2:0] $end
$var reg 3 2 state [2:0] $end
$scope module char_det_inst $end
$var wire 8 3 char [7:0] $end
$var wire 1 ! is_true1 $end
$upscope $end
$upscope $end
$upscope $end
$enddefinitions $end
$comment Show the parameter values. $end
$dumpall
$end
#0
$dumpvars
b0 3
b0 2
b0 1
b11 0
b0 /
b111011 .
b100 -
b0 ,
b111011 +
b100 *
0)
1(
b0 '
0&
0%
b0 $
b11 #
0"
0!
$end
#5000
1)
#10000
0)
#12000
0(
#15000
1)
#20000
0)
#25000
1)
#30000
0)
#32000
b10 1
1!
b1000001 '
b1000001 ,
b1000001 3
b0 +
b0 .
b101 *
b101 -
#35000
b11 1
b1 #
b1 0
b10 2
1)
#40000
0)
#45000
b100 1
b11 $
b11 /
b0 #
b0 0
b11 2
1)
#50000
0)
#55000
b0 1
b1 $
b1 /
b100 2
1)
#60000
0)
#65000
b10 1
b0 $
b0 /
b11 #
b11 0
b0 2
1)
#70000
0)
#75000
b11 1
b1 #
b1 0
b10 2
1)
#80000
0)
#85000
b100 1
b11 $
b11 /
b0 #
b0 0
b11 2
1)
#90000
0)
#95000
b0 1
b1 $
b1 /
b100 2
1)
#100000
0)
#105000
b10 1
b0 $
b0 /
b11 #
b11 0
b0 2
1)
#110000
0)
#115000
b11 1
b1 #
b1 0
b10 2
1)
#120000
0)
#125000
b100 1
b11 $
b11 /
b0 #
b0 0
b11 2
1)
#130000
0)
#135000
b0 1
b1 $
b1 /
b100 2
1)
#140000
0)
#145000
b10 1
b0 $
b0 /
b11 #
b11 0
b0 2
1)
#150000
0)
#155000
b11 1
b1 #
b1 0
b10 2
1)
#160000
0)
#165000
b100 1
b11 $
b11 /
b0 #
b0 0
b11 2
1)
#170000
0)
#175000
b0 1
b1 $
b1 /
b100 2
1)
#180000
0)
#185000
b10 1
b0 $
b0 /
b11 #
b11 0
b0 2
1)
#190000
0)
#195000
b11 1
b1 #
b1 0
b10 2
1)
#200000
0)
#205000
b100 1
b11 $
b11 /
b0 #
b0 0
b11 2
1)
#210000
0)
#215000
b0 1
b1 $
b1 /
b100 2
1)
#220000
0)
#225000
b10 1
b0 $
b0 /
b11 #
b11 0
b0 2
1)
